…
tidy_anscombe <- anscombe %>%
 pivot_longer(cols = everything(),
              names_to = c(".value", "set"),
              names_pattern = "(.)(.)")

tidy_anscombe
#> # A tibble: 44 x 3
#>    set       x     y
#>    <chr> <dbl> <dbl>
#>  1 1        10  8.04
#>  2 2        10  9.14
#>  3 3        10  7.46
#>  4 4         8  6.58
#>  5 1         8  6.95
#>  6 2         8  8.14
#>  7 3         8  6.77
#>  8 4         8  5.76
#>  9 1        13  7.58
#> 10 2        13  8.74
#> # … with 34 more rows
```
…
> The names and values are separated by two characters

I don't speak regex good, so I looked it up on ["regexr"](https://regexr.com/), and basically this translates to "two characters", so it will create a column for each character. You could equivalently write:

``` r
names_pattern = "([a-z])([1-9])"
```

Which would more explicitly say: \"The first thing is a character, the second thing is a number.

This means that we end up with:

``` r
tidy_anscombe
#> # A tibble: 44 x 3
#>    set       x     y
#>    <chr> <dbl> <dbl>
#>  1 1        10  8.04
#>  2 2        10  9.14
#>  3 3        10  7.46
#>  4 4         8  6.58
#>  5 1         8  6.95
#>  6 2         8  8.14
#>  7 3         8  6.77
#>  8 4         8  5.76
#>  9 1        13  7.58
#> 10 2        13  8.74
#> # … with 34 more rows
```
…
old_tidy_anscombe
#> # A tibble: 88 x 4
#>    rowid group     x     y
#>    <int> <dbl> <dbl> <dbl>
#>  1     1     1    10    NA
#>  2     2     1     8    NA
#>  3     3     1    13    NA
#>  4     4     1     9    NA
#>  5     5     1    11    NA
#>  6     6     1    14    NA
#>  7     7     1     6    NA
#>  8     8     1     4    NA
#>  9     9     1    12    NA
#> 10    10     1     7    NA
#> # … with 78 more rows
```
…
