…
<img src="figs/plot-many-triangles-1.png" width="700px" style="display: block; margin: auto;" />

But if we make many points, we get circles:


```r
circles_df <- create_poly_packings(areas = c(20, 15, 10, 5), 
                                   n_points = 50)
circles_df
#> # A tibble: 204 x 3
#>          x     y    id
#>      <dbl> <dbl> <int>
#>  1  0      0         1
#>  2 -0.0141 0.224     1
#>  3 -0.0561 0.444     1
#>  4 -0.125  0.657     1
#>  5 -0.221  0.860     1
#>  6 -0.341  1.05      1
#>  7 -0.484  1.22      1
#>  8 -0.647  1.37      1
#>  9 -0.828  1.51      1
#> 10 -1.02   1.61      1
#> # … with 194 more rows
…
  create_poly_packings(areas = circle_vec, 
                       n_points = 50)
}
```


```r
circle_plate <- create_circle_plate()

circle_plate
#> # A tibble: 51,000 x 3
#>           x      y    id
#>       <dbl>  <dbl> <int>
#>  1  0       0          1
#>  2 -0.00222 0.0354     1
#>  3 -0.00886 0.0702     1
#>  4 -0.0198  0.104      1
#>  5 -0.0349  0.136      1
#>  6 -0.0539  0.166      1
#>  7 -0.0765  0.193      1
#>  8 -0.102   0.217      1
#>  9 -0.131   0.238      1
#> 10 -0.162   0.255      1
#> # … with 50,990 more rows
…
```r

circle_plate_sf <- cast_packing_poly(circle_plate)
#> `summarise()` ungrouping output (override with `.groups` argument)

circle_plate_sf
#> Simple feature collection with 1000 features and 1 field
#> geometry type:  POLYGON
#> dimension:      XY
#> bbox:           xmin: -16.91085 ymin: -16.5197 xmax: 16.92988 ymax: 16.5243
#> CRS:            NA
#> # A tibble: 1,000 x 2
#>       id                                                                geometry
#>    <int>                                                               <POLYGON>
#>  1     1 ((0 0, -0.002224402 0.03535585, -0.008862527 0.07015412, -0.01980969 0…
#>  2     2 ((1.261566 0, 1.256592 0.07905809, 1.241749 0.1568694, 1.21727 0.23220…
#>  3     3 ((0.3898454 -0.9119497, 0.3848715 -0.8328916, 0.3700282 -0.7550803, 0.…
#>  4     4 ((-0.5451949 -0.159723, -0.5483406 -0.1097222, -0.5577284 -0.06051006,…
#>  5     5 ((-0.2425009 0.5785156, -0.2456467 0.6285163, -0.2550344 0.6777285, -0…
#>  6     6 ((0.495987 0.8806008, 0.4928412 0.9306015, 0.4834535 0.9798137, 0.4679…
#>  7     7 ((1.713749 1.177744, 1.708775 1.256802, 1.693932 1.334613, 1.669453 1.…
#>  8     8 ((2.015647 0.2971429, 2.012501 0.3471437, 2.003113 0.3963559, 1.987631…
#>  9     9 ((2.28924 -0.7317357, 2.284266 -0.6526776, 2.269422 -0.5748663, 2.2449…
#> 10    10 ((1.417519 -1.643685, 1.412545 -1.564627, 1.397701 -1.486816, 1.373223…
#> # … with 990 more rows
```
…
```r
letter_s <- glyph("s")

letter_s
#> # A tibble: 425 x 3
#>        x      y glyph
#>    <dbl>  <dbl> <chr>
#>  1 0.353 0.129  s    
#>  2 0.353 0.123  s    
#>  3 0.353 0.117  s    
#>  4 0.352 0.111  s    
#>  5 0.351 0.105  s    
#>  6 0.351 0.0994 s    
#>  7 0.350 0.0938 s    
#>  8 0.348 0.0882 s    
#>  9 0.347 0.0828 s    
#> 10 0.345 0.0775 s    
#> # … with 415 more rows
```
…
